EESchema Schematic File Version 4
EELAYER 30 0
EELAYER END
$Descr A4 11693 8268
encoding utf-8
Sheet 1 1
Title "RFID DOOR LOCK ESP8266"
Date "2021-02-24"
Rev "0"
Comp "MILLSTREAM COMPUTING"
Comment1 ""
Comment2 ""
Comment3 ""
Comment4 ""
$EndDescr
$Comp
L Mikes:ESP8266MON U2
U 1 1 6036385D
P 4700 3500
F 0 "U2" H 4575 4365 50  0000 C CNN
F 1 "ESP8266MON" H 4575 4274 50  0000 C CNN
F 2 "Mikee:ESP8266MOD" H 4700 3500 50  0001 C CNN
F 3 "" H 4700 3500 50  0001 C CNN
	1    4700 3500
	1    0    0    -1  
$EndComp
$Comp
L Transistor_BJT:BC546 Q1
U 1 1 6036544F
P 9400 5850
F 0 "Q1" H 9591 5896 50  0000 L CNN
F 1 "BC546" H 9591 5805 50  0000 L CNN
F 2 "Package_TO_SOT_THT:TO-92_Inline_Wide" H 9600 5775 50  0001 L CIN
F 3 "https://www.onsemi.com/pub/Collateral/BC550-D.pdf" H 9400 5850 50  0001 L CNN
	1    9400 5850
	1    0    0    -1  
$EndComp
$Comp
L Diode:1N4004 D3
U 1 1 60365D7C
P 9200 5100
F 0 "D3" V 9100 5050 50  0000 C CNN
F 1 "1N4004" V 9300 5000 50  0000 C CNN
F 2 "Diode_THT:D_DO-41_SOD81_P10.16mm_Horizontal" H 9200 4925 50  0001 C CNN
F 3 "http://www.vishay.com/docs/88503/1n4001.pdf" H 9200 5100 50  0001 C CNN
	1    9200 5100
	0    1    1    0   
$EndComp
Text GLabel 3850 3300 0    50   Output ~ 0
RELAY
Text GLabel 3850 3400 0    50   Output ~ 0
LED_RED
Text GLabel 3850 3500 0    50   Output ~ 0
LED_GRN
Text GLabel 5750 3200 1    50   Input ~ 0
WEIGAND_0
Text GLabel 5850 3100 1    50   Input ~ 0
WEIGAND_1
Wire Wire Line
	3850 3300 4050 3300
Text GLabel 8650 5850 0    50   Input ~ 0
RELAY
$Comp
L Device:R R3
U 1 1 6036864A
P 8900 5850
F 0 "R3" V 8693 5850 50  0000 C CNN
F 1 "R" V 8784 5850 50  0000 C CNN
F 2 "Resistor_THT:R_Axial_DIN0207_L6.3mm_D2.5mm_P7.62mm_Horizontal" V 8830 5850 50  0001 C CNN
F 3 "~" H 8900 5850 50  0001 C CNN
	1    8900 5850
	0    1    1    0   
$EndComp
Wire Wire Line
	9500 5650 9500 5500
Wire Wire Line
	9200 5850 9050 5850
Wire Wire Line
	8750 5850 8650 5850
$Comp
L power:+3.3V #PWR05
U 1 1 60369AA8
P 3250 3600
F 0 "#PWR05" H 3250 3450 50  0001 C CNN
F 1 "+3.3V" H 3265 3773 50  0000 C CNN
F 2 "" H 3250 3600 50  0001 C CNN
F 3 "" H 3250 3600 50  0001 C CNN
	1    3250 3600
	1    0    0    -1  
$EndComp
$Comp
L power:GND #PWR06
U 1 1 6036A1AF
P 5300 3600
F 0 "#PWR06" H 5300 3350 50  0001 C CNN
F 1 "GND" H 5305 3427 50  0000 C CNN
F 2 "" H 5300 3600 50  0001 C CNN
F 3 "" H 5300 3600 50  0001 C CNN
	1    5300 3600
	1    0    0    -1  
$EndComp
$Comp
L power:+12V #PWR01
U 1 1 6036A748
P 1600 6450
F 0 "#PWR01" H 1600 6300 50  0001 C CNN
F 1 "+12V" H 1615 6623 50  0000 C CNN
F 2 "" H 1600 6450 50  0001 C CNN
F 3 "" H 1600 6450 50  0001 C CNN
	1    1600 6450
	1    0    0    -1  
$EndComp
$Comp
L power:+3.3V #PWR04
U 1 1 6036D781
P 3400 6750
F 0 "#PWR04" H 3400 6600 50  0001 C CNN
F 1 "+3.3V" H 3415 6923 50  0000 C CNN
F 2 "" H 3400 6750 50  0001 C CNN
F 3 "" H 3400 6750 50  0001 C CNN
	1    3400 6750
	1    0    0    -1  
$EndComp
$Comp
L Device:C C2
U 1 1 6036E1C7
P 2950 6950
F 0 "C2" H 3065 6996 50  0000 L CNN
F 1 "C" H 3065 6905 50  0000 L CNN
F 2 "Capacitor_THT:C_Disc_D5.0mm_W2.5mm_P2.50mm" H 2988 6800 50  0001 C CNN
F 3 "~" H 2950 6950 50  0001 C CNN
	1    2950 6950
	1    0    0    -1  
$EndComp
$Comp
L Device:C_Polarized C3
U 1 1 6036E9E9
P 3250 6950
F 0 "C3" H 3368 6996 50  0000 L CNN
F 1 "C_Polarized" H 3368 6905 50  0000 L CNN
F 2 "Capacitor_THT:CP_Radial_D5.0mm_P2.50mm" H 3288 6800 50  0001 C CNN
F 3 "~" H 3250 6950 50  0001 C CNN
	1    3250 6950
	1    0    0    -1  
$EndComp
$Comp
L Device:C C1
U 1 1 6036F0D9
P 1500 7000
F 0 "C1" H 1615 7046 50  0000 L CNN
F 1 "C" H 1615 6955 50  0000 L CNN
F 2 "Capacitor_THT:C_Disc_D5.0mm_W2.5mm_P2.50mm" H 1538 6850 50  0001 C CNN
F 3 "~" H 1500 7000 50  0001 C CNN
	1    1500 7000
	1    0    0    -1  
$EndComp
$Comp
L power:GND #PWR03
U 1 1 6036F4D6
P 2200 7400
F 0 "#PWR03" H 2200 7150 50  0001 C CNN
F 1 "GND" H 2205 7227 50  0000 C CNN
F 2 "" H 2200 7400 50  0001 C CNN
F 3 "" H 2200 7400 50  0001 C CNN
	1    2200 7400
	1    0    0    -1  
$EndComp
Wire Wire Line
	1200 6850 1500 6850
Wire Wire Line
	1500 6850 1600 6850
Connection ~ 1500 6850
Wire Wire Line
	1600 6450 1600 6850
Connection ~ 1600 6850
Wire Wire Line
	1600 6850 1750 6850
Wire Wire Line
	2950 7100 3250 7100
Wire Wire Line
	2950 6800 3250 6800
Connection ~ 2950 6800
Wire Wire Line
	3250 6800 3400 6800
Wire Wire Line
	3400 6800 3400 6750
Connection ~ 3250 6800
Wire Wire Line
	3250 3600 3950 3600
Wire Wire Line
	5100 3600 5300 3600
Text GLabel 5350 3300 2    50   Input ~ 0
PROG
Text GLabel 3850 3100 0    50   Input ~ 0
ENABLE
Wire Wire Line
	3850 3100 3950 3100
Wire Wire Line
	5100 3300 5350 3300
Text GLabel 3850 2900 0    50   Input ~ 0
~RESET~
Wire Wire Line
	3850 2900 4050 2900
Wire Wire Line
	3950 3100 3950 3600
Connection ~ 3950 3100
Wire Wire Line
	3950 3100 4050 3100
Connection ~ 3950 3600
Wire Wire Line
	3950 3600 4050 3600
$Comp
L power:+12V #PWR07
U 1 1 60374D0F
P 9500 4500
F 0 "#PWR07" H 9500 4350 50  0001 C CNN
F 1 "+12V" H 9515 4673 50  0000 C CNN
F 2 "" H 9500 4500 50  0001 C CNN
F 3 "" H 9500 4500 50  0001 C CNN
	1    9500 4500
	1    0    0    -1  
$EndComp
$Comp
L power:+12V #PWR08
U 1 1 603751C8
P 10000 4050
F 0 "#PWR08" H 10000 3900 50  0001 C CNN
F 1 "+12V" H 10015 4223 50  0000 C CNN
F 2 "" H 10000 4050 50  0001 C CNN
F 3 "" H 10000 4050 50  0001 C CNN
	1    10000 4050
	1    0    0    -1  
$EndComp
Wire Wire Line
	10000 4700 9850 4700
Wire Wire Line
	9850 4700 9850 4900
Wire Wire Line
	9500 4900 9500 4700
Wire Wire Line
	9500 4700 9200 4700
Wire Wire Line
	9200 4700 9200 4950
Wire Wire Line
	9200 5250 9200 5500
Wire Wire Line
	9200 5500 9500 5500
Connection ~ 9500 5500
Wire Wire Line
	9500 5500 9500 5400
$Comp
L Device:LED D1
U 1 1 6037845F
P 2500 3400
F 0 "D1" H 2600 3450 50  0000 C CNN
F 1 "R" H 2350 3450 50  0000 C CNN
F 2 "LED_THT:LED_D5.0mm_Horizontal_O3.81mm_Z3.0mm" H 2500 3400 50  0001 C CNN
F 3 "~" H 2500 3400 50  0001 C CNN
	1    2500 3400
	1    0    0    -1  
$EndComp
$Comp
L Device:LED D2
U 1 1 60378750
P 2500 3500
F 0 "D2" H 2600 3550 50  0000 C CNN
F 1 "G" H 2350 3450 50  0000 C CNN
F 2 "LED_THT:LED_D5.0mm_Horizontal_O3.81mm_Z3.0mm" H 2500 3500 50  0001 C CNN
F 3 "~" H 2500 3500 50  0001 C CNN
	1    2500 3500
	1    0    0    -1  
$EndComp
$Comp
L Device:R R1
U 1 1 60378A22
P 2950 3400
F 0 "R1" V 2850 3400 50  0000 C CNN
F 1 "150R" V 2950 3400 50  0000 C CNN
F 2 "Resistor_THT:R_Axial_DIN0207_L6.3mm_D2.5mm_P7.62mm_Horizontal" V 2880 3400 50  0001 C CNN
F 3 "~" H 2950 3400 50  0001 C CNN
	1    2950 3400
	0    1    1    0   
$EndComp
$Comp
L Device:R R2
U 1 1 60378F05
P 2950 3500
F 0 "R2" V 3050 3400 50  0000 C CNN
F 1 "150R" V 2950 3500 50  0000 C CNN
F 2 "Resistor_THT:R_Axial_DIN0207_L6.3mm_D2.5mm_P7.62mm_Horizontal" V 2880 3500 50  0001 C CNN
F 3 "~" H 2950 3500 50  0001 C CNN
	1    2950 3500
	0    1    1    0   
$EndComp
$Comp
L power:GND #PWR02
U 1 1 603790DA
P 2000 3650
F 0 "#PWR02" H 2000 3400 50  0001 C CNN
F 1 "GND" H 2005 3477 50  0000 C CNN
F 2 "" H 2000 3650 50  0001 C CNN
F 3 "" H 2000 3650 50  0001 C CNN
	1    2000 3650
	1    0    0    -1  
$EndComp
Wire Wire Line
	3100 3400 4050 3400
Wire Wire Line
	2800 3400 2650 3400
Wire Wire Line
	2350 3400 2000 3400
Wire Wire Line
	2000 3400 2000 3500
Wire Wire Line
	2350 3500 2000 3500
Connection ~ 2000 3500
Wire Wire Line
	2000 3500 2000 3650
Wire Wire Line
	2800 3500 2650 3500
Wire Wire Line
	3100 3500 4050 3500
$Comp
L Connector_Generic:Conn_01x04 J2
U 1 1 603802D8
P 7550 3000
F 0 "J2" H 7793 2992 50  0000 C CNN
F 1 "WEIGAND" H 7793 2901 50  0000 C CNN
F 2 "Connector_Molex:Molex_KK-254_AE-6410-04A_1x04_P2.54mm_Vertical" H 7550 3000 50  0001 C CNN
F 3 "~" H 7550 3000 50  0001 C CNN
	1    7550 3000
	1    0    0    -1  
$EndComp
$Comp
L Connector_Generic:Conn_01x02 J3
U 1 1 60381399
P 10200 4200
F 0 "J3" H 10510 4192 50  0000 C CNN
F 1 "Conn_01x02" H 10510 4101 50  0000 C CNN
F 2 "Connector_Molex:Molex_KK-254_AE-6410-02A_1x02_P2.54mm_Vertical" H 10200 4200 50  0001 C CNN
F 3 "~" H 10200 4200 50  0001 C CNN
	1    10200 4200
	1    0    0    -1  
$EndComp
$Comp
L power:+12V #PWR0101
U 1 1 60381EC9
P 7350 2800
F 0 "#PWR0101" H 7350 2650 50  0001 C CNN
F 1 "+12V" H 7365 2973 50  0000 C CNN
F 2 "" H 7350 2800 50  0001 C CNN
F 3 "" H 7350 2800 50  0001 C CNN
	1    7350 2800
	1    0    0    -1  
$EndComp
$Comp
L power:GND #PWR0102
U 1 1 603822F4
P 7350 3300
F 0 "#PWR0102" H 7350 3050 50  0001 C CNN
F 1 "GND" H 7355 3127 50  0000 C CNN
F 2 "" H 7350 3300 50  0001 C CNN
F 3 "" H 7350 3300 50  0001 C CNN
	1    7350 3300
	1    0    0    -1  
$EndComp
Wire Wire Line
	7350 3200 7350 3300
Wire Wire Line
	7350 2900 7350 2800
Wire Wire Line
	9500 4500 9500 4700
$Comp
L power:GND #PWR0103
U 1 1 603909C9
P 9500 6150
F 0 "#PWR0103" H 9500 5900 50  0001 C CNN
F 1 "GND" H 9505 5977 50  0000 C CNN
F 2 "" H 9500 6150 50  0001 C CNN
F 3 "" H 9500 6150 50  0001 C CNN
	1    9500 6150
	1    0    0    -1  
$EndComp
Wire Wire Line
	9500 6150 9500 6050
Connection ~ 9500 4700
$Comp
L power:GND #PWR0104
U 1 1 603942F2
P 10100 5600
F 0 "#PWR0104" H 10100 5350 50  0001 C CNN
F 1 "GND" H 10105 5427 50  0000 C CNN
F 2 "" H 10100 5600 50  0001 C CNN
F 3 "" H 10100 5600 50  0001 C CNN
	1    10100 5600
	1    0    0    -1  
$EndComp
Wire Wire Line
	10000 4050 10000 4100
Wire Wire Line
	10000 4300 10000 4400
Wire Wire Line
	10100 5500 10100 5600
Wire Wire Line
	10100 5500 10050 5500
Wire Wire Line
	9850 5500 9850 5400
Wire Wire Line
	1200 6950 1200 7150
$Comp
L Device:R R5
U 1 1 603A117B
P 6150 3450
F 0 "R5" H 6272 3496 50  0000 C CNN
F 1 "1K" H 6272 3405 50  0000 C CNN
F 2 "Resistor_THT:R_Axial_DIN0207_L6.3mm_D2.5mm_P7.62mm_Horizontal" V 6080 3450 50  0001 C CNN
F 3 "~" H 6150 3450 50  0001 C CNN
	1    6150 3450
	1    0    0    -1  
$EndComp
$Comp
L Device:R R6
U 1 1 603A1966
P 6400 3000
F 0 "R6" H 6522 3046 50  0000 C CNN
F 1 "2K" H 6522 2955 50  0000 C CNN
F 2 "Resistor_THT:R_Axial_DIN0207_L6.3mm_D2.5mm_P7.62mm_Horizontal" V 6330 3000 50  0001 C CNN
F 3 "~" H 6400 3000 50  0001 C CNN
	1    6400 3000
	1    0    0    -1  
$EndComp
$Comp
L Device:R R7
U 1 1 603A2C70
P 6400 3450
F 0 "R7" H 6522 3496 50  0000 C CNN
F 1 "1K" H 6522 3405 50  0000 C CNN
F 2 "Resistor_THT:R_Axial_DIN0207_L6.3mm_D2.5mm_P7.62mm_Horizontal" V 6330 3450 50  0001 C CNN
F 3 "~" H 6400 3450 50  0001 C CNN
	1    6400 3450
	1    0    0    -1  
$EndComp
$Comp
L Device:R R4
U 1 1 603A2F55
P 6150 2900
F 0 "R4" H 6272 2946 50  0000 C CNN
F 1 "2K" H 6272 2855 50  0000 C CNN
F 2 "Resistor_THT:R_Axial_DIN0207_L6.3mm_D2.5mm_P7.62mm_Horizontal" V 6080 2900 50  0001 C CNN
F 3 "~" H 6150 2900 50  0001 C CNN
	1    6150 2900
	1    0    0    -1  
$EndComp
Wire Wire Line
	6150 2750 6150 2700
Wire Wire Line
	6150 2700 7250 2700
Wire Wire Line
	7250 2700 7250 3000
Wire Wire Line
	7250 3000 7350 3000
Wire Wire Line
	7350 3100 7150 3100
Wire Wire Line
	7150 3100 7150 2750
Wire Wire Line
	7150 2750 6400 2750
Wire Wire Line
	6400 2750 6400 2850
Wire Wire Line
	6150 3050 6150 3100
Wire Wire Line
	6150 3600 6150 3750
Wire Wire Line
	6150 3750 6300 3750
Wire Wire Line
	6400 3750 6400 3600
$Comp
L power:GND #PWR0105
U 1 1 603AA1E2
P 6300 3750
F 0 "#PWR0105" H 6300 3500 50  0001 C CNN
F 1 "GND" H 6305 3577 50  0000 C CNN
F 2 "" H 6300 3750 50  0001 C CNN
F 3 "" H 6300 3750 50  0001 C CNN
	1    6300 3750
	1    0    0    -1  
$EndComp
Connection ~ 6300 3750
Wire Wire Line
	6300 3750 6400 3750
$Comp
L Diode:1N4004 D4
U 1 1 603DAAFA
P 9850 4250
F 0 "D4" V 9750 4200 50  0000 C CNN
F 1 "1N4004" V 9950 4150 50  0000 C CNN
F 2 "Diode_THT:D_DO-41_SOD81_P10.16mm_Horizontal" H 9850 4075 50  0001 C CNN
F 3 "http://www.vishay.com/docs/88503/1n4001.pdf" H 9850 4250 50  0001 C CNN
	1    9850 4250
	0    1    1    0   
$EndComp
Wire Wire Line
	9850 4100 10000 4100
Connection ~ 10000 4100
Wire Wire Line
	10000 4100 10000 4200
Wire Wire Line
	9850 4400 10000 4400
Connection ~ 10000 4400
Wire Wire Line
	10000 4400 10000 4700
Wire Wire Line
	5100 2900 5350 2900
Wire Wire Line
	5350 2900 5350 2650
Wire Wire Line
	5100 3000 5450 3000
Wire Wire Line
	5450 3000 5450 2650
$Comp
L power:GND #PWR0106
U 1 1 603F96A5
P 5250 2750
F 0 "#PWR0106" H 5250 2500 50  0001 C CNN
F 1 "GND" H 5255 2577 50  0000 C CNN
F 2 "" H 5250 2750 50  0001 C CNN
F 3 "" H 5250 2750 50  0001 C CNN
	1    5250 2750
	1    0    0    -1  
$EndComp
Wire Wire Line
	5250 2750 5250 2650
$Comp
L Connector_Generic:Conn_01x03 J4
U 1 1 60433D66
P 5350 2450
F 0 "J4" V 5314 2032 50  0000 C CNN
F 1 "Conn_01x03" V 5223 2032 50  0000 C CNN
F 2 "Connector_PinHeader_2.54mm:PinHeader_1x03_P2.54mm_Vertical" H 5350 2450 50  0001 C CNN
F 3 "~" H 5350 2450 50  0001 C CNN
	1    5350 2450
	0    -1   -1   0   
$EndComp
Text Label 5150 2900 0    50   ~ 0
TX
Text Label 5150 3000 0    50   ~ 0
RX
Wire Wire Line
	5100 3100 6150 3100
Wire Wire Line
	6400 3150 6400 3200
Wire Wire Line
	5100 3200 6400 3200
Connection ~ 6400 3200
Wire Wire Line
	6400 3200 6400 3300
Connection ~ 6150 3100
Wire Wire Line
	6150 3100 6150 3300
NoConn ~ 5100 3500
NoConn ~ 5100 3400
NoConn ~ 4050 3200
NoConn ~ 4050 3000
$Comp
L Mikes:HK4100F-DC12V-SHG K1
U 1 1 603945E9
P 9950 5150
F 0 "K1" H 10555 5196 50  0000 C CNN
F 1 "HK4100F-DC12V-SHG" H 10555 5105 50  0000 C CNN
F 2 "Mikee:HK4100F" H 9950 5150 50  0001 C CNN
F 3 "" H 9950 5150 50  0001 C CNN
	1    9950 5150
	1    0    0    -1  
$EndComp
Wire Wire Line
	10050 5400 10050 5500
Connection ~ 10050 5500
Wire Wire Line
	10050 5500 9850 5500
$Comp
L Regulator_Linear:LM317L_TO92 U1
U 1 1 603B8CDB
P 2050 6850
F 0 "U1" H 2050 7092 50  0000 C CNN
F 1 "LM317L_TO92" H 1795 7001 50  0000 L CNN
F 2 "Package_TO_SOT_THT:TO-92_Inline" H 2050 7075 50  0001 C CIN
F 3 "http://www.ti.com/lit/ds/snvs775k/snvs775k.pdf" H 2050 6850 50  0001 C CNN
	1    2050 6850
	1    0    0    -1  
$EndComp
$Comp
L Device:R R9
U 1 1 603B92F1
P 2600 7000
F 0 "R9" H 2722 7046 50  0000 C CNN
F 1 "240R" V 2600 7000 50  0000 C CNN
F 2 "Resistor_THT:R_Axial_DIN0207_L6.3mm_D2.5mm_P7.62mm_Horizontal" V 2530 7000 50  0001 C CNN
F 3 "~" H 2600 7000 50  0001 C CNN
	1    2600 7000
	1    0    0    -1  
$EndComp
$Comp
L Device:R R8
U 1 1 603BC173
P 2350 7250
F 0 "R8" V 2250 7250 50  0000 C CNN
F 1 "370R" V 2350 7250 50  0000 C CNN
F 2 "Resistor_THT:R_Axial_DIN0207_L6.3mm_D2.5mm_P7.62mm_Horizontal" V 2280 7250 50  0001 C CNN
F 3 "~" H 2350 7250 50  0001 C CNN
	1    2350 7250
	0    1    1    0   
$EndComp
Wire Wire Line
	2350 6850 2600 6850
Wire Wire Line
	2600 6800 2600 6850
Wire Wire Line
	2600 6800 2950 6800
Connection ~ 2600 6850
Wire Wire Line
	2500 7250 2600 7250
Wire Wire Line
	2600 7250 2600 7150
Wire Wire Line
	2200 7250 2200 7300
Wire Wire Line
	2200 7350 2950 7350
Wire Wire Line
	2950 7350 2950 7100
Connection ~ 2200 7350
Wire Wire Line
	2200 7350 2200 7400
Connection ~ 2950 7100
Wire Wire Line
	1500 7150 1500 7300
Wire Wire Line
	1500 7300 2050 7300
Connection ~ 1500 7150
Connection ~ 2200 7300
Wire Wire Line
	2200 7300 2200 7350
Wire Wire Line
	2050 7150 2050 7300
Connection ~ 2050 7300
Wire Wire Line
	2050 7300 2200 7300
$Comp
L Connector_Generic:Conn_01x02 J5
U 1 1 603D3B96
P 1000 6950
F 0 "J5" H 1310 6942 50  0000 C CNN
F 1 "Conn_01x02" H 1310 6851 50  0000 C CNN
F 2 "Connector_Molex:Molex_KK-254_AE-6410-02A_1x02_P2.54mm_Vertical" H 1000 6950 50  0001 C CNN
F 3 "~" H 1000 6950 50  0001 C CNN
	1    1000 6950
	-1   0    0    1   
$EndComp
Wire Wire Line
	1200 7150 1500 7150
$EndSCHEMATC
