EESchema Schematic File Version 4
LIBS:sesame-03-cache
EELAYER 26 0
EELAYER END
$Descr A4 11693 8268
encoding utf-8
Sheet 1 1
Title ""
Date ""
Rev ""
Comp ""
Comment1 ""
Comment2 ""
Comment3 ""
Comment4 ""
$EndDescr
$Comp
L sesame-03-rescue:ATMEGA8-P IC1
U 1 1 57A9C9B0
P 3700 3500
F 0 "IC1" H 2950 4800 50  0000 L BNN
F 1 "ATMEGA8-P" H 4200 2050 50  0000 L BNN
F 2 "Housings_DIP:DIP-28_W7.62mm_LongPads" H 3700 3500 50  0001 C CIN
F 3 "NA" H 3700 3500 50  0000 C CNN
F 4 "NA" H 0   0   50  0001 C CNN "MFR"
F 5 "NA" H 0   0   50  0001 C CNN "MPN"
F 6 "NA" H 0   0   50  0001 C CNN "SPR"
F 7 "NA" H 0   0   50  0001 C CNN "SPN"
F 8 "NA" H 0   0   50  0001 C CNN "SPURL"
	1    3700 3500
	1    0    0    -1  
$EndComp
$Comp
L device:D D3
U 1 1 57A9CB7C
P 6250 3900
F 0 "D3" H 6250 4000 50  0000 C CNN
F 1 "1N4148" H 6250 3800 50  0000 C CNN
F 2 "Diodes_ThroughHole:Diode_DO-35_SOD27_Horizontal_RM10" H 6250 3900 50  0001 C CNN
F 3 "NA" H 6250 3900 50  0000 C CNN
F 4 "NA" H 0   0   50  0001 C CNN "MFR"
F 5 "NA" H 0   0   50  0001 C CNN "MPN"
F 6 "NA" H 0   0   50  0001 C CNN "SPR"
F 7 "NA" H 0   0   50  0001 C CNN "SPN"
F 8 "NA" H 0   0   50  0001 C CNN "SPURL"
	1    6250 3900
	1    0    0    -1  
$EndComp
$Comp
L device:R R3
U 1 1 57A9CC07
P 6700 3550
F 0 "R3" V 6780 3550 50  0000 C CNN
F 1 "3K3" V 6700 3550 50  0000 C CNN
F 2 "Resistors_ThroughHole:Resistor_Horizontal_RM7mm" V 6630 3550 50  0001 C CNN
F 3 "NA" H 6700 3550 50  0000 C CNN
F 4 "NA" H 0   0   50  0001 C CNN "MFR"
F 5 "NA" H 0   0   50  0001 C CNN "MPN"
F 6 "NA" H 0   0   50  0001 C CNN "SPR"
F 7 "NA" H 0   0   50  0001 C CNN "SPN"
F 8 "NA" H 0   0   50  0001 C CNN "SPURL"
	1    6700 3550
	1    0    0    -1  
$EndComp
$Comp
L device:R R2
U 1 1 57A9CC92
P 5100 3400
F 0 "R2" V 5180 3400 50  0000 C CNN
F 1 "330R" V 5100 3400 50  0000 C CNN
F 2 "Resistors_ThroughHole:Resistor_Horizontal_RM7mm" V 5030 3400 50  0001 C CNN
F 3 "NA" H 5100 3400 50  0000 C CNN
F 4 "NA" H 0   0   50  0001 C CNN "MFR"
F 5 "NA" H 0   0   50  0001 C CNN "MPN"
F 6 "NA" H 0   0   50  0001 C CNN "SPR"
F 7 "NA" H 0   0   50  0001 C CNN "SPN"
F 8 "NA" H 0   0   50  0001 C CNN "SPURL"
	1    5100 3400
	0    1    1    0   
$EndComp
$Comp
L device:R R4
U 1 1 57A9CD19
P 9150 4800
F 0 "R4" V 9230 4800 50  0000 C CNN
F 1 "470R" V 9150 4800 50  0000 C CNN
F 2 "Resistors_ThroughHole:Resistor_Horizontal_RM7mm" V 9080 4800 50  0001 C CNN
F 3 "NA" H 9150 4800 50  0000 C CNN
F 4 "NA" H 0   0   50  0001 C CNN "MFR"
F 5 "NA" H 0   0   50  0001 C CNN "MPN"
F 6 "NA" H 0   0   50  0001 C CNN "SPR"
F 7 "NA" H 0   0   50  0001 C CNN "SPN"
F 8 "NA" H 0   0   50  0001 C CNN "SPURL"
	1    9150 4800
	0    1    1    0   
$EndComp
$Comp
L sesame-03-rescue:LED-RESCUE-sesame-03 D2
U 1 1 57A9CD5C
P 5700 3400
F 0 "D2" H 5700 3500 50  0000 C CNN
F 1 "GREEN" H 5700 3300 50  0000 C CNN
F 2 "LEDs:LED-5MM" H 5700 3400 50  0001 C CNN
F 3 "NA" H 5700 3400 50  0000 C CNN
F 4 "NA" H 0   0   50  0001 C CNN "MFR"
F 5 "NA" H 0   0   50  0001 C CNN "MPN"
F 6 "NA" H 0   0   50  0001 C CNN "SPR"
F 7 "NA" H 0   0   50  0001 C CNN "SPN"
F 8 "NA" H 0   0   50  0001 C CNN "SPURL"
	1    5700 3400
	-1   0    0    1   
$EndComp
$Comp
L sesame-03-rescue:LED-RESCUE-sesame-03 D1
U 1 1 57A9CD8B
P 5700 3100
F 0 "D1" H 5700 3200 50  0000 C CNN
F 1 "RED" H 5700 3000 50  0000 C CNN
F 2 "LEDs:LED-5MM" H 5700 3100 50  0001 C CNN
F 3 "NA" H 5700 3100 50  0000 C CNN
F 4 "NA" H 0   0   50  0001 C CNN "MFR"
F 5 "NA" H 0   0   50  0001 C CNN "MPN"
F 6 "NA" H 0   0   50  0001 C CNN "SPR"
F 7 "NA" H 0   0   50  0001 C CNN "SPN"
F 8 "NA" H 0   0   50  0001 C CNN "SPURL"
	1    5700 3100
	-1   0    0    1   
$EndComp
$Comp
L sesame-03-rescue:LED-RESCUE-sesame-03 D4
U 1 1 57A9CDD8
P 9500 5000
F 0 "D4" H 9500 5100 50  0000 C CNN
F 1 "LED" H 9500 4900 50  0000 C CNN
F 2 "LEDs:LED-5MM" H 9500 5000 50  0001 C CNN
F 3 "NA" H 9500 5000 50  0000 C CNN
F 4 "NA" H 0   0   50  0001 C CNN "MFR"
F 5 "NA" H 0   0   50  0001 C CNN "MPN"
F 6 "NA" H 0   0   50  0001 C CNN "SPR"
F 7 "NA" H 0   0   50  0001 C CNN "SPN"
F 8 "NA" H 0   0   50  0001 C CNN "SPURL"
	1    9500 5000
	0    -1   -1   0   
$EndComp
$Comp
L power1:+3.3V #PWR01
U 1 1 57A9CEED
P 6700 3150
F 0 "#PWR01" H 6700 3000 50  0001 C CNN
F 1 "+3.3V" H 6700 3290 50  0000 C CNN
F 2 "NA" H 6700 3150 50  0000 C CNN
F 3 "NA" H 6700 3150 50  0000 C CNN
	1    6700 3150
	1    0    0    -1  
$EndComp
$Comp
L power1:+5V #PWR02
U 1 1 57A9CF19
P 2200 2550
F 0 "#PWR02" H 2200 2400 50  0001 C CNN
F 1 "+5V" H 2200 2690 50  0000 C CNN
F 2 "NA" H 2200 2550 50  0000 C CNN
F 3 "NA" H 2200 2550 50  0000 C CNN
	1    2200 2550
	1    0    0    -1  
$EndComp
$Comp
L power1:GND #PWR03
U 1 1 57A9CF3D
P 3700 5250
F 0 "#PWR03" H 3700 5000 50  0001 C CNN
F 1 "GND" H 3700 5100 50  0000 C CNN
F 2 "NA" H 3700 5250 50  0000 C CNN
F 3 "NA" H 3700 5250 50  0000 C CNN
	1    3700 5250
	1    0    0    -1  
$EndComp
$Comp
L power1:GND #PWR04
U 1 1 57A9CF67
P 9100 5650
F 0 "#PWR04" H 9100 5400 50  0001 C CNN
F 1 "GND" H 9100 5500 50  0000 C CNN
F 2 "NA" H 9100 5650 50  0000 C CNN
F 3 "NA" H 9100 5650 50  0000 C CNN
	1    9100 5650
	1    0    0    -1  
$EndComp
$Comp
L power1:GND #PWR05
U 1 1 57A9CF8A
P 2200 2800
F 0 "#PWR05" H 2200 2550 50  0001 C CNN
F 1 "GND" H 2200 2650 50  0000 C CNN
F 2 "NA" H 2200 2800 50  0000 C CNN
F 3 "NA" H 2200 2800 50  0000 C CNN
	1    2200 2800
	1    0    0    -1  
$EndComp
$Comp
L power1:+5V #PWR06
U 1 1 57A9CFAD
P 3700 1700
F 0 "#PWR06" H 3700 1550 50  0001 C CNN
F 1 "+5V" H 3700 1840 50  0000 C CNN
F 2 "NA" H 3700 1700 50  0000 C CNN
F 3 "NA" H 3700 1700 50  0000 C CNN
	1    3700 1700
	1    0    0    -1  
$EndComp
$Comp
L sesame-03-rescue:HC-06 U1
U 1 1 57A9E29D
P 8000 4500
F 0 "U1" H 7450 5450 50  0000 C CNN
F 1 "HC-06" H 8450 5450 50  0000 C CNN
F 2 "SMD_Packages:HC-05" H 8000 3700 50  0001 C CNN
F 3 "NA" H 8000 3700 50  0000 C CNN
F 4 "NA" H 0   0   50  0001 C CNN "MFR"
F 5 "NA" H 0   0   50  0001 C CNN "MPN"
F 6 "NA" H 0   0   50  0001 C CNN "SPR"
F 7 "NA" H 0   0   50  0001 C CNN "SPN"
F 8 "NA" H 0   0   50  0001 C CNN "SPURL"
	1    8000 4500
	1    0    0    -1  
$EndComp
$Comp
L power1:GND #PWR07
U 1 1 57A9E439
P 7000 5200
F 0 "#PWR07" H 7000 4950 50  0001 C CNN
F 1 "GND" H 7000 5050 50  0000 C CNN
F 2 "NA" H 7000 5200 50  0000 C CNN
F 3 "NA" H 7000 5200 50  0000 C CNN
	1    7000 5200
	1    0    0    -1  
$EndComp
$Comp
L power1:GND #PWR08
U 1 1 57A9E45F
P 6000 3500
F 0 "#PWR08" H 6000 3250 50  0001 C CNN
F 1 "GND" H 6000 3350 50  0000 C CNN
F 2 "NA" H 6000 3500 50  0000 C CNN
F 3 "NA" H 6000 3500 50  0000 C CNN
	1    6000 3500
	1    0    0    -1  
$EndComp
$Comp
L device:R R1
U 1 1 57A9ECD4
P 5100 3100
F 0 "R1" V 5180 3100 50  0000 C CNN
F 1 "330R" V 5100 3100 50  0000 C CNN
F 2 "Resistors_ThroughHole:Resistor_Horizontal_RM7mm" V 5030 3100 50  0001 C CNN
F 3 "NA" H 5100 3100 50  0000 C CNN
F 4 "NA" H 0   0   50  0001 C CNN "MFR"
F 5 "NA" H 0   0   50  0001 C CNN "MPN"
F 6 "NA" H 0   0   50  0001 C CNN "SPR"
F 7 "NA" H 0   0   50  0001 C CNN "SPN"
F 8 "NA" H 0   0   50  0001 C CNN "SPURL"
	1    5100 3100
	0    1    1    0   
$EndComp
$Comp
L sesame-03-rescue:RM50-xx11 RL1
U 1 1 57A9E159
P 5650 5200
F 0 "RL1" H 6100 5350 50  0000 L CNN
F 1 "RM50-xx11" H 6100 5250 50  0000 L CNN
F 2 "Relays_ThroughHole:Relay_SPDT_Schrack-RT1_RM5mm" H 5650 5200 50  0001 C CNN
F 3 "NA" H 5650 5200 50  0000 C CNN
F 4 "NA" H 0   0   50  0001 C CNN "MFR"
F 5 "NA" H 0   0   50  0001 C CNN "MPN"
F 6 "NA" H 0   0   50  0001 C CNN "SPR"
F 7 "NA" H 0   0   50  0001 C CNN "SPN"
F 8 "NA" H 0   0   50  0001 C CNN "SPURL"
	1    5650 5200
	1    0    0    -1  
$EndComp
$Comp
L device:D D5
U 1 1 57A9E21D
P 5000 5200
F 0 "D5" H 5000 5300 50  0000 C CNN
F 1 "1N4004" H 5000 5100 50  0000 C CNN
F 2 "Diodes_ThroughHole:Diode_DO-35_SOD27_Horizontal_RM10" H 5000 5200 50  0001 C CNN
F 3 "NA" H 5000 5200 50  0000 C CNN
F 4 "NA" H 0   0   50  0001 C CNN "MFR"
F 5 "NA" H 0   0   50  0001 C CNN "MPN"
F 6 "NA" H 0   0   50  0001 C CNN "SPR"
F 7 "NA" H 0   0   50  0001 C CNN "SPN"
F 8 "NA" H 0   0   50  0001 C CNN "SPURL"
	1    5000 5200
	0    1    1    0   
$EndComp
$Comp
L power1:GND #PWR09
U 1 1 57A9E2AD
P 5450 6350
F 0 "#PWR09" H 5450 6100 50  0001 C CNN
F 1 "GND" H 5450 6200 50  0000 C CNN
F 2 "NA" H 5450 6350 50  0000 C CNN
F 3 "NA" H 5450 6350 50  0000 C CNN
	1    5450 6350
	1    0    0    -1  
$EndComp
$Comp
L transistors:PN2222A Q1
U 1 1 57A9E338
P 5350 5900
F 0 "Q1" H 5550 5975 50  0000 L CNN
F 1 "PN2222A" H 5550 5900 50  0000 L CNN
F 2 "TO_SOT_Packages_THT:TO-92_Molded_Narrow" H 5550 5825 50  0001 L CIN
F 3 "NA" H 5350 5900 50  0000 L CNN
F 4 "NA" H 0   0   50  0001 C CNN "MFR"
F 5 "NA" H 0   0   50  0001 C CNN "MPN"
F 6 "NA" H 0   0   50  0001 C CNN "SPR"
F 7 "NA" H 0   0   50  0001 C CNN "SPN"
F 8 "NA" H 0   0   50  0001 C CNN "SPURL"
	1    5350 5900
	1    0    0    -1  
$EndComp
$Comp
L device:R R5
U 1 1 57A9E992
P 4850 4450
F 0 "R5" V 4930 4450 50  0000 C CNN
F 1 "3K3" V 4850 4450 50  0000 C CNN
F 2 "Resistors_ThroughHole:Resistor_Horizontal_RM7mm" V 4780 4450 50  0001 C CNN
F 3 "NA" H 4850 4450 50  0000 C CNN
F 4 "NA" H 0   0   50  0001 C CNN "MFR"
F 5 "NA" H 0   0   50  0001 C CNN "MPN"
F 6 "NA" H 0   0   50  0001 C CNN "SPR"
F 7 "NA" H 0   0   50  0001 C CNN "SPN"
F 8 "NA" H 0   0   50  0001 C CNN "SPURL"
	1    4850 4450
	1    0    0    -1  
$EndComp
$Comp
L sesame-03-rescue:SW_PUSH_SMALL_H SW1
U 1 1 57A9ECAE
P 5400 4400
F 0 "SW1" H 5400 4350 50  0000 C CNN
F 1 "SW" H 5400 4400 50  0000 C CNN
F 2 "Pin_Headers:Pin_Header_Straight_1x02" H 5400 4600 50  0001 C CNN
F 3 "NA" H 5400 4400 50  0000 C CNN
F 4 "NA" H 0   0   50  0001 C CNN "MFR"
F 5 "NA" H 0   0   50  0001 C CNN "MPN"
F 6 "NA" H 0   0   50  0001 C CNN "SPR"
F 7 "NA" H 0   0   50  0001 C CNN "SPN"
F 8 "NA" H 0   0   50  0001 C CNN "SPURL"
	1    5400 4400
	1    0    0    -1  
$EndComp
$Comp
L conn:Conn_01x07 J2
U 1 1 5B1276C8
P 5450 1550
F 0 "J2" H 5450 1950 50  0000 C CNN
F 1 "PROG" H 5450 1150 50  0000 C CNN
F 2 "NA" H 5450 1550 50  0001 C CNN
F 3 "NA" H 5450 1550 50  0001 C CNN
	1    5450 1550
	0    -1   -1   0   
$EndComp
$Comp
L power1:GND #PWR012
U 1 1 5B127CBD
P 5550 2000
F 0 "#PWR012" H 5550 1750 50  0001 C CNN
F 1 "GND" H 5550 1850 50  0000 C CNN
F 2 "NA" H 5550 2000 50  0000 C CNN
F 3 "NA" H 5550 2000 50  0000 C CNN
	1    5550 2000
	1    0    0    -1  
$EndComp
$Comp
L power1:+5V #PWR014
U 1 1 5B127D2E
P 6000 1650
F 0 "#PWR014" H 6000 1500 50  0001 C CNN
F 1 "+5V" H 6000 1790 50  0000 C CNN
F 2 "NA" H 6000 1650 50  0000 C CNN
F 3 "NA" H 6000 1650 50  0000 C CNN
	1    6000 1650
	1    0    0    -1  
$EndComp
$Comp
L power1:GND #PWR013
U 1 1 5B164ABE
P 5700 4400
F 0 "#PWR013" H 5700 4150 50  0001 C CNN
F 1 "GND" H 5700 4250 50  0000 C CNN
F 2 "NA" H 5700 4400 50  0000 C CNN
F 3 "NA" H 5700 4400 50  0000 C CNN
	1    5700 4400
	1    0    0    -1  
$EndComp
Text GLabel 5950 4700 2    60   Input ~ 0
12VDC
Text GLabel 5850 5700 2    60   Input ~ 0
STRIKER
Text GLabel 5150 4100 2    45   Input ~ 0
WIEGAND_+
Text GLabel 5150 4000 2    45   Input ~ 0
WIEGAND_-
Text GLabel 5150 4200 2    45   Input ~ 0
READER_BEEP
Text GLabel 5150 4300 2    45   Input ~ 0
READER_LED
Wire Wire Line
	4700 3900 6100 3900
Wire Wire Line
	6400 3900 6700 3900
Wire Wire Line
	6700 3900 7300 3900
Wire Wire Line
	6700 3900 6700 3700
Wire Wire Line
	6700 3150 6700 3250
Wire Wire Line
	6700 3250 6700 3400
Wire Wire Line
	4700 3800 7300 3800
Wire Wire Line
	8700 4800 9000 4800
Wire Wire Line
	9300 4800 9500 4800
Wire Wire Line
	9500 5500 9500 5200
Wire Wire Line
	8400 5500 9100 5500
Wire Wire Line
	9100 5500 9500 5500
Wire Wire Line
	9100 5500 9100 5650
Wire Wire Line
	8400 5500 8400 5400
Wire Wire Line
	7300 5000 7000 5000
Wire Wire Line
	7000 5000 7000 5200
Wire Wire Line
	2800 2600 2200 2600
Wire Wire Line
	2200 2600 2200 2550
Wire Wire Line
	3700 1700 3700 2100
Wire Wire Line
	3700 5000 3700 5250
Wire Wire Line
	4700 3100 4950 3100
Wire Wire Line
	5250 3100 5500 3100
Wire Wire Line
	5900 3100 6000 3100
Wire Wire Line
	6000 3100 6000 3400
Wire Wire Line
	6000 3400 6000 3500
Wire Wire Line
	5900 3400 6000 3400
Wire Wire Line
	5500 3400 5250 3400
Wire Wire Line
	4950 3400 4700 3400
Wire Wire Line
	5950 4900 5950 4700
Wire Wire Line
	5850 5500 5850 5700
Wire Wire Line
	5450 5500 5450 5600
Wire Wire Line
	5450 5600 5450 5700
Wire Wire Line
	5450 4900 5450 4800
Wire Wire Line
	5450 4800 5000 4800
Wire Wire Line
	5000 4800 5000 5050
Wire Wire Line
	5000 5350 5000 5600
Wire Wire Line
	5000 5600 5450 5600
Wire Wire Line
	4700 3600 4850 3600
Wire Wire Line
	4850 5900 5150 5900
Wire Wire Line
	4850 3600 4850 4300
Wire Wire Line
	4850 4600 4850 5900
Wire Wire Line
	5450 6100 5450 6350
Wire Wire Line
	2750 2400 2800 2400
Wire Wire Line
	4700 4000 5150 4000
Wire Wire Line
	5150 4100 4700 4100
Wire Wire Line
	7300 4900 7000 4900
Wire Wire Line
	7000 4900 7000 3250
Wire Wire Line
	7000 3250 6700 3250
Wire Wire Line
	4700 2700 5150 2700
Wire Wire Line
	5150 2700 5150 1750
Wire Wire Line
	4700 2800 5250 2800
Wire Wire Line
	5250 2800 5250 1750
Wire Wire Line
	4700 2900 5350 2900
Wire Wire Line
	5350 2900 5350 1750
Wire Wire Line
	2750 2000 5450 2000
Wire Wire Line
	5450 2000 5450 1750
Wire Wire Line
	5550 2000 5550 1750
Wire Wire Line
	5750 1750 5750 1850
Wire Wire Line
	5750 1850 6000 1850
Wire Wire Line
	6000 1850 6000 1650
Wire Wire Line
	4700 4200 5150 4200
Wire Wire Line
	4700 4300 5150 4300
Wire Wire Line
	2750 2400 2750 2000
Wire Wire Line
	4700 4400 5250 4400
Wire Wire Line
	5550 4400 5700 4400
Connection ~ 6700 3900
Connection ~ 9100 5500
Connection ~ 6000 3400
Connection ~ 5450 5600
Connection ~ 6700 3250
NoConn ~ 7300 4000
NoConn ~ 7300 4100
NoConn ~ 7300 4200
NoConn ~ 7300 4300
NoConn ~ 7300 4400
NoConn ~ 7300 4500
NoConn ~ 7300 4600
NoConn ~ 7300 4700
NoConn ~ 7300 4800
NoConn ~ 7700 5400
NoConn ~ 7800 5400
NoConn ~ 7900 5400
NoConn ~ 8000 5400
NoConn ~ 8100 5400
NoConn ~ 8200 5400
NoConn ~ 8300 5400
NoConn ~ 8700 5000
NoConn ~ 8700 4900
NoConn ~ 8700 4700
NoConn ~ 8700 4600
NoConn ~ 8700 4500
NoConn ~ 8700 4400
NoConn ~ 8700 4300
NoConn ~ 8700 4200
NoConn ~ 8700 4100
NoConn ~ 8700 4000
NoConn ~ 8700 3900
NoConn ~ 8700 3800
NoConn ~ 5750 4900
NoConn ~ 2800 2700
NoConn ~ 5650 1750
Wire Wire Line
	2200 2800 2800 2800
$Comp
L power1:+5V #PWR011
U 1 1 5CC426F8
P 5450 4750
F 0 "#PWR011" H 5450 4600 50  0001 C CNN
F 1 "+5V" H 5450 4890 50  0000 C CNN
F 2 "NA" H 5450 4750 50  0000 C CNN
F 3 "NA" H 5450 4750 50  0000 C CNN
	1    5450 4750
	1    0    0    -1  
$EndComp
Wire Wire Line
	5450 4800 5450 4750
Connection ~ 5450 4800
$Comp
L regul:L7805 U2
U 1 1 5CC44502
P 2300 6500
F 0 "U2" H 2150 6625 50  0000 C CNN
F 1 "L7805" H 2300 6625 50  0000 L CNN
F 2 "" H 2325 6350 50  0001 L CIN
F 3 "http://www.st.com/content/ccc/resource/technical/document/datasheet/41/4f/b3/b0/12/d4/47/88/CD00000444.pdf/files/CD00000444.pdf/jcr:content/translations/en.CD00000444.pdf" H 2300 6450 50  0001 C CNN
	1    2300 6500
	1    0    0    -1  
$EndComp
$Comp
L Connector:Barrel_Jack J1
U 1 1 5CC453B1
P 1250 6600
F 0 "J1" H 1250 6810 50  0000 C CNN
F 1 "Barrel_Jack" H 1250 6400 50  0000 C CNN
F 2 "" H 1300 6560 50  0001 C CNN
F 3 "~" H 1300 6560 50  0001 C CNN
	1    1250 6600
	1    0    0    -1  
$EndComp
$Comp
L power1:+5V #PWR010
U 1 1 5CC46548
P 3150 6400
F 0 "#PWR010" H 3150 6250 50  0001 C CNN
F 1 "+5V" H 3150 6540 50  0000 C CNN
F 2 "NA" H 3150 6400 50  0000 C CNN
F 3 "NA" H 3150 6400 50  0000 C CNN
	1    3150 6400
	1    0    0    -1  
$EndComp
Wire Wire Line
	1550 6500 1800 6500
Wire Wire Line
	2600 6500 2700 6500
Wire Wire Line
	3150 6500 3150 6400
Wire Wire Line
	1550 6700 1550 7050
Wire Wire Line
	1550 7050 1800 7050
Wire Wire Line
	2300 7050 2300 6800
$Comp
L Device:CP C3
U 1 1 5CC4B661
P 3050 6750
F 0 "C3" H 3075 6850 50  0000 L CNN
F 1 "CP" H 3075 6650 50  0000 L CNN
F 2 "" H 3088 6600 50  0001 C CNN
F 3 "~" H 3050 6750 50  0001 C CNN
	1    3050 6750
	1    0    0    -1  
$EndComp
$Comp
L Device:C C2
U 1 1 5CC4C00E
P 2700 6750
F 0 "C2" H 2725 6850 50  0000 L CNN
F 1 "C" H 2725 6650 50  0000 L CNN
F 2 "" H 2738 6600 50  0001 C CNN
F 3 "~" H 2700 6750 50  0001 C CNN
	1    2700 6750
	1    0    0    -1  
$EndComp
Wire Wire Line
	2700 6600 2700 6500
Connection ~ 2700 6500
Wire Wire Line
	2700 6500 3050 6500
Wire Wire Line
	3050 6600 3050 6500
Connection ~ 3050 6500
Wire Wire Line
	3050 6500 3150 6500
Wire Wire Line
	2700 6900 2700 7050
Wire Wire Line
	2700 7050 2300 7050
Connection ~ 2300 7050
Wire Wire Line
	2700 7050 3050 7050
Wire Wire Line
	3050 7050 3050 6900
Connection ~ 2700 7050
$Comp
L Device:CP C1
U 1 1 5CC560DF
P 1800 6750
F 0 "C1" H 1825 6850 50  0000 L CNN
F 1 "CP" H 1825 6650 50  0000 L CNN
F 2 "" H 1838 6600 50  0001 C CNN
F 3 "~" H 1800 6750 50  0001 C CNN
	1    1800 6750
	1    0    0    -1  
$EndComp
Wire Wire Line
	1800 6600 1800 6500
Connection ~ 1800 6500
Wire Wire Line
	1800 6500 2000 6500
Wire Wire Line
	1800 6900 1800 7050
Connection ~ 1800 7050
Wire Wire Line
	1800 7050 2300 7050
$Comp
L regul:AP1117-33 U?
U 1 1 5CC473B4
P 3950 6500
F 0 "U?" H 3800 6625 50  0000 C CNN
F 1 "AP1117-33" H 3950 6625 50  0000 L CNN
F 2 "TO_SOT_Packages_SMD:SOT-223-3Lead_TabPin2" H 3950 6700 50  0001 C CNN
F 3 "http://www.diodes.com/datasheets/AP1117.pdf" H 4050 6250 50  0001 C CNN
	1    3950 6500
	1    0    0    -1  
$EndComp
Wire Wire Line
	3950 7050 3950 6800
Wire Wire Line
	3150 6500 3650 6500
Connection ~ 3150 6500
Wire Wire Line
	3050 7050 3950 7050
Connection ~ 3050 7050
$Comp
L power1:+3.3V #PWR?
U 1 1 5CC4EAB4
P 4550 6350
F 0 "#PWR?" H 4550 6200 50  0001 C CNN
F 1 "+3.3V" H 4550 6490 50  0000 C CNN
F 2 "NA" H 4550 6350 50  0000 C CNN
F 3 "NA" H 4550 6350 50  0000 C CNN
	1    4550 6350
	1    0    0    -1  
$EndComp
Wire Wire Line
	4250 6500 4550 6500
Wire Wire Line
	4550 6500 4550 6350
$EndSCHEMATC
